{
	"gem_attrs": {
		"mode": "quadro"
	},
	"facets": [
		{"pos": "east",  "label": "East facet"},
		{"pos": "north", "label": "North facet"},
		{"pos": "west",  "label": "West facet"},
		{"pos": "south", "label": "South facet"}
	]
}
